{
    "yes": {
        "1": {
            "plage et soleil": {
                "europe": {},
                "afrique et océan indien": [
                    "afrique du sud",
                    "bénin",
                    "côte d’ivoire",
                    "gabon",
                    "ghana",
                    "namibie",
                    "sénégal",
                    "togo"
                ],
                "amériques": [
                    
                    
                    "argentine",
                    "belize",
                    "brésil",
                    
                    "chili",
                    "colombie",
                    "costa rica",
                    "cuba",
                    
                    "guatemala",
                    "mexique",
                    "porto rico",
                    "république dominicaine",
                    "salvador",
                    "uruguay",
                    "venezuela"
                ],
                "moyen-orient": [
                    "émirats arabes unis",
                    
                    
                    "oman"
                ],
                "asie": [
                    "cambodge",
                    "inde",
                    
                    
                    "malaisie",
                    "sri lanka",
                    "inde",
                    
                    
                    "thaïlande",
                    "sri lanka",
                    "thaïlande",
                    "vietnam"
                ],
                "océanie": [
                    "australie",
                    "nouvelle-zélande"
                    
                ]
            },
            "nature, randonnées et visites": {
                "europe": {},
                "afrique et océan indien": [
                    "afrique du sud",
                    "bénin",
                    "burkina faso",
                    "cameroun",
                    "côte d’ivoire",
                    "éthiopie",
                    "gabon",
                    "gambie",
                    "ghana",
                    "lesotho",
                    "namibie",
                    "sénégal",
                    "togo"
                ],
                "amériques": [
                    
                    
                    "argentine",
                    "brésil",
                    
                    "chili",
                    "colombie",
                    "costa rica",
                    
                    "guatemala",
                    "honduras",
                    "jamaïque",
                    "nicaragua",
                    "république dominicaine",
                    "salvador",
                    "venezuela"
                ],
                "moyen-orient": [
                    "émirats arabes unis",
                    
                    
                    "oman"
                ],
                "asie": [
                    "bhoutan",
                    "birmanie",
                    "cambodge",
                    "corée du sud",
                    "inde",
                    "laos",
                    "népal",
                    "singapour",
                    "philippines",
                    "thaïlande",
                    "bangkok"
                ],
                "océanie": [
                    "australie",
                    "nouvelle-zélande"
                ]
            },
            "ski, neige et montagne": {
                "europe": [
                    "allemagne",
                    "alpes",
                    "autriche",
                    "bulgarie",
                    "finlande",
                    "norvège",
                    "pologne",
                    "roumanie",
                    "russie",
                    "slovénie",
                    "suède",
                    "suisse"
                ],
                "afrique et océan indien": [
                    "maroc"
                ],
                "amériques": [
                    "canada",
                    "québec",
                    "états-unis"
                ],
                "moyen-orient": {},
                "asie": [
                    "japon"
                ],
                "océanie": {}
            }
        },
        "2": {
            "plage et soleil": {
                "europe": {},
                "afrique et océan indien": [
                    "afrique du sud",
                    "bénin",
                    "burkina faso",
                    "côte d’ivoire",
                    "gabon",
                    "kenya",
                    "namibie",
                    "sénégal",
                    "togo"
                ],
                "amériques": [
                    
                    
                    "argentine",
                    "belize",
                    "brésil",
                    "chili",
                    "colombie",
                    "costa rica",
                    "cuba",
                    
                    "guatemala",
                    "jamaïque",
                    "mexique",
                    "panama",
                    "pérou",
                    "porto rico",
                    "république dominicaine",
                    "salvador",
                    "trinité-et-tobago",
                    "uruguay",
                    "venezuela"
                ],
                "moyen-orient": [
                    
                    "oman"
                ],
                "asie": [
                    "cambodge",
                    "inde",
                    
                    
                    "philippines",
                    "sri lanka",
                    "thaïlande",
                    "vietnam"
                ],
                "océanie": [
                    "australie",
                    "nouvelle-zélande",
                    
                    "polynésie française"
                ]
            },
            "nature, randonnées et visites": {
                "europe": {},
                "afrique et océan indien": [
                    "afrique du sud",
                    "afrique du sud",
                    "bénin",
                    "côte d’ivoire",
                    "éthiopie",
                    "gabon",
                    "gambie",
                    "ghana",
                    "kenya",
                    "namibie",
                    "sénégal",
                    "togo"
                ],
                "amériques": [
                    
                    
                    "argentine",
                    "belize",
                    "brésil",
                    "chili",
                    "colombie",
                    "costa rica",
                    "cuba",
                    
                    "guatemala",
                    "honduras",
                    "jamaïque",
                    "mexique",
                    "nicaragua",
                    "panama",
                    "pérou",
                    "porto rico",
                    "république dominicaine",
                    "salvador",
                    "trinité-et-tobago",
                    "venezuela"
                ],
                "moyen-orient": [
                    
                    "émirats arabes unis",
                    "oman"
                ],
                "asie": [
                    "bhoutan",
                    "birmanie",
                    "cambodge",
                    "inde",
                    "laos",
                    "népal",
                    "philippines",
                    "sri lanka",
                    "thaïlande",
                    "vietnam"
                ],
                "océanie": [
                    "australie",
                    "nouvelle-zélande"
                ]
            },
            "ski, neige et montagne": {
                "europe": [
                    "allemagne",
                    "alpes",
                    "autriche",
                    "bulgarie",
                    "finlande",
                    "norvège",
                    "pologne",
                    "roumanie",
                    "russie",
                    "slovénie",
                    "suède",
                    "suisse"
                ],
                "afrique et océan indien": [
                    "maroc"
                ],
                "amériques": [
                    "canada",
                    "québec",
                    "états-unis"
                ],
                "moyen-orient": {},
                "asie": [
                    "japon"
                ],
                "océanie": {}
            }
        },
        "3": {
            "plage et soleil": {
                "europe": {},
                "afrique et océan indien": [
                    "afrique du sud",
                    "bénin",
                    "côte d’ivoire",
                    "gambie",
                    "ghana",
                    "sénégal"
                ],
                "amériques": [
                    
                    
                    "argentine",
                    "bahamas",
                    "belize",
                    "brésil",
                    "chili",
                    "colombie",
                    "costa rica",
                    "cuba",
                    
                    "guatemala",
                    "jamaïque",
                    "mexique",
                    "panama",
                    "pérou",
                    "porto rico",
                    "république dominicaine",
                    "salvador",
                    "trinité-et-tobago",
                    "uruguay",
                    "venezuela"
                ],
                "moyen-orient": [
                    "israël",
"palestine",
                    "émirats arabes unis",
                    
                    
                    "oman"
                ],
                "asie": [
                    "brunei",
                    "cambodge",
                    "inde",
                    
                    "philippines",
                    "sri lanka",
                    "thaïlande",
                    "vietnam"
                ],
                "océanie": [
                    "australie"
                ]
            },
            "nature, randonnées et visites": {
                "europe": {},
                "afrique et océan indien": [
                    "afrique du sud",
                    "bénin",
                    "côte d’ivoire",
                    "éthiopie",
                    "gambie",
                    "ghana",
                    "kenya",
                    "sénégal"
                ],
                "amériques": [
                    
                    
                    "argentine",
                    "buenos aires",
                    "patagonie",
                    "belize",
                    "brésil",
                    "chili",
                    "costa rica",
                    "cuba",
                    
                    "guatemala",
                    "honduras",
                    "jamaïque",
                    "louisiane",
                    "mexique",
                    "panama",
                    "pérou",
                    "porto rico",
                    "république dominicaine",
                    "salvador",
                    "trinité-et-tobago",
                    "uruguay",
                    "venezuela"
                ],
                "moyen-orient": [
                    "égypte",
                    
                    "émirats arabes unis",
                    "iran",
                    "israël",
"palestine",
                    "oman"
                ],
                "asie": [
                    "bhoutan",
                    "cambodge",
                    "inde",
                    "rajasthan",
                    "népal",
                    "sri lanka",
                    "vietnam"
                ],
                "océanie": [
                    "nouvelle-calédonie",
                    "nouvelle-zélande"
                ]
            },
            "ski, neige et montagne": {
                "europe": [
                    "allemagne",
                    "alpes",
                    "autriche",
                    "bulgarie",
                    "finlande",
                    "norvège",
                    "pologne",
                    "roumanie",
                    "russie",
                    "slovénie",
                    "suède",
                    "suisse"
                ],
                "afrique et océan indien": [
                    "maroc"
                ],
                "amériques": [
                    "canada",
                    "états-unis"
                ],
                "moyen-orient": {},
                "asie": [
                    "japon"
                ],
                "océanie": {}
            }
        },
        "4": {
            "plage et soleil": {
                "europe": [
                    "chypre"
                ],
                "afrique et océan indien": [
                    "afrique du sud",
                    "bénin",
                    "cap-vert",
                    "côte d’ivoire",
                    "gabon",
                    "gambie",
                    "sénégal",
                    "seychelles"
                ],
                "amériques": [
                    
                    
                    "argentine",
                    "bahamas",
                    "belize",
                    "brésil",
                    "chili",
                    "colombie",
                    "costa rica",
                    "cuba",
                    
                    "guatemala",
                    "jamaïque",
                    "mexique",
                    "panama",
                    "pérou",
                    "république dominicaine",
                    "salvador",
                    "trinité-et-tobago",
                    "venezuela"
                ],
                "moyen-orient": [
                    "israël",
"palestine",
                    "dubaï"
                ],
                "asie": [
                    "brunei",
                    "inde",
                    "malaisie",
                    "philippines",
                    "sri lanka",
                    "thaïlande"
                ],
                "océanie": [
                    "nouvelle-calédonie",
                    "polynésie française"
                ]
            },
            "nature, randonnées et visites": {
                "europe": [
                    "arménie",
                    "chypre",
                    "espagne",
                    "andalousie",
                    "grèce",
                    "italie",
                    "sicile",
                    "malte",
                    "pays-bas",
                    "portugal",
                    "madère",
                    "turquie"
                ],
                "afrique et océan indien": [
                    "algérie",
                    "afrique du sud",
                    "madagascar",
                    "namibie",
                    "sénégal",
                    "swaziland",
                    "tunisie",
                    "zambie",
                    "zimbabwe"
                ],
                "amériques": [
                    
                    
                    "argentine",
                    "buenos aires",
                    "patagonie",
                    "belize",
                    "bolivie",
                    "brésil",
                    "chili",
                    "costa rica",
                    "cuba",
                    "états-unis",
                    
                    "louisiane",
                    "parcs nationaux de l'ouest américain",
                    "guatemala",
                    "honduras",
                    "jamaïque",
                    "mexique",
                    "panama",
                    "pérou",
                    "porto rico",
                    "république dominicaine",
                    "trinité-et-tobago",
                    "uruguay"
                ],
                "moyen-orient": [
                    
                    "émirats arabes unis",
                    "iran",
                    "israël",
"palestine",
                    "jordanie"
                ],
                "asie": [
                    "bhoutan",
                    "chine",
                    "pékin",
                    "shanghai",
                    "corée du sud",
                    "inde",
                    "japon",
                    "ouzbékistan",
                    "philippines",
                    "sri lanka",
                    "tadjikistan",
                    "vietnam"
                ],
                "océanie": [
                    "australie",
                    "nouvelle-calédonie",
                    "nouvelle-zélande"
                ]
            },
            "ski, neige et montagne": {
                "europe": [
                    "alpes",
                    "autriche",
                    "finlande",
                    "norvège",
                    "suède",
                    "suisse"
                ],
                "afrique et océan indien": [
                    "maroc"
                ],
                "amériques": [
                    "canada",
                    "états-unis"
                ],
                "moyen-orient": {},
                "asie": [
                    "japon"
                ],
                "océanie": {}
            }
        },
        "5": {
            "plage et soleil": {
                "europe": [
                    "chypre",
                    "grèce",
                    "crète",
                    "îles grecques",
                    "îles féroé",
                    "italie",
                    "malte",
                    "turquie"
                ],
                "afrique et océan indien": [
                    "afrique du sud",
                    "algérie",
                    "cap-vert",
                    "gambie",
                    "maroc",
                    "madagascar",
                    "île maurice",
                    "la réunion",
                    "sénégal",
                    "seychelles",
                    "tunisie"
                ],
                "amériques": [
                    
                    
                    "argentine",
                    "bahamas",
                    "belize",
                    "brésil",
                    
                    "chili",
                    "colombie",
                    "costa rica",
                    "cuba",
                    
                    "guatemala",
                    "jamaïque",
                    "mexique",
                    "panama",
                    "pérou",
                    "république dominicaine",
                    "salvador",
                    "trinité-et-tobago",
                    "venezuela"
                ],
                "moyen-orient": [
                    "égypte",
                    "israël",
"palestine",
                    "liban"
                ],
                "asie": [
                    "bali",
                    "brunei",
                    "indonésie",
                    "malaisie",
                    "sri lanka"
                ],
                "océanie": [
                    "australie",
                    "nouvelle-calédonie",
                    "nouvelle-zélande",
                    "polynésie française"
                ]
            },
            "nature, randonnées et visites": {
                "europe": [
                    "angleterre",
                    "pays de galles",
                    "albanie",
                    "allemagne",
                    "arménie",
                    "autriche",
                    "canaries",
                    "chypre",
                    "croatie",
                    "danemark",
                    "espagne",
                    "andalousie",
                    "grèce",
                    "îles grecques",
                    "hongrie",
                    "irlande",
                    "italie",
                    "sicile",
                    "madère",
                    "malte",
                    "monténégro",
                    "pays-bas",
                    "pologne",
                    "portugal",
                    "république tchèque",
                    "roumanie",
                    "serbie",
                    "slovaquie",
                    "slovénie",
                    "suisse",
                    "turquie"
                ],
                "afrique et océan indien": [
                    "afrique du sud",
                    "algérie",
                    "madagascar",
                    "maroc",
                    "namibie",
                    "la réunion",
                    "sénégal",
                    "swaziland",
                    "tunisie",
                    "zambie",
                    "zimbabwe"
                ],
                "amériques": [
                    "bolivie",
                    "brésil",
                    "canada",
                    "québec",
                    "colombie",
                    "états-unis",
                    "californie",
                    "hawaii",
                    "mexique",
                    "paraguay",
                    "venezuela"
                ],
                "moyen-orient": [
                    "émirats arabes unis",
                    
                    
                    "iran",
                    "israël",
"palestine",
                    "jordanie",
                    "liban"
                ],
                "asie": [
                    "bhoutan",
                    "chine",
                    "corée du sud",
                    "inde",
                    "japon",
                    "kazakhstan",
                    "kirghizistan",
                    "ouzbékistan",
                    "philippines",
                    "sri lanka",
                    "tadjikistan",
                    "tibet",
                    "turkménistan",
                    "vietnam"
                ],
                "océanie": [
                    "nouvelle-calédonie",
                    "nouvelle-zélande"
                ]
            },
            "ski, neige et montagne": {
                "europe": {},
                "afrique et océan indien": {},
                "amériques": {},
                "moyen-orient": {},
                "asie": {},
                "océanie": {}
            }
        },
        "6": {
            "plage et soleil": {
                "europe": [
                    "açores",
                    "chypre",
                    "crète",
                    "croatie",
                    "espagne",
                    "baléares",
                    "canaries",
                    "grèce",
                    "italie",
                    "malte",
                    "norvège",
                    "portugal",
                    "madère",
                    "russie",
                    "turquie"
                ],
                "afrique et océan indien": [
                    "algérie",
                    "cap-vert",
                    "maroc",
                    "madagascar",
                    "île maurice",
                    "la réunion",
                    "sénégal",
                    "seychelles",
                    "tanzanie",
                    "tunisie"
                ],
                "amériques": [
                    "brésil",
                    
                    "hawaii"
                ],
                "moyen-orient": [
                    "égypte",
                    "israël",
"palestine",
                    "liban"
                ],
                "asie": [
                    "bali",
                    "indonésie",
                    "malaisie",
                    "sri lanka"
                ],
                "océanie": [
                    "australie",
                    "îles fidji",
                    "polynésie française"
                ]
            },
            "nature, randonnées et visites": {
                "europe": [
                    "angleterre",
                    "pays de galles",
                    "albanie",
                    "allemagne",
                    "arménie",
                    "autriche",
                    "belgique",
                    "bulgarie",
                    "chypre",
                    "croatie",
                    "danemark",
                    "espagne",
                    "andalousie",
                    "baléares",
                    "canaries",
                    "estonie",
                    "grèce",
                    "îles grecques",
                    "îles féroé",
                    "finlande",
                    "hongrie",
                    "irlande",
                    "islande",
                    "italie",
                    "sicile",
                    "madère",
                    "lettonie",
                    "lituanie",
                    "malte",
                    "monténégro",
                    "norvège",
                    "pays-bas",
                    "pologne",
                    "portugal",
                    "république tchèque",
                    "roumanie",
                    "serbie",
                    "slovaquie",
                    "slovénie",
                    "suède",
                    "suisse",
                    "russie",
                    "tadjikistan",
                    "turquie"
                ],
                "afrique et océan indien": [
                    "afrique du sud",
                    "algérie",
                    "cap-vert",
                    "maroc",
                    "mozambique",
                    "namibie",
                    "république du congo",
                    "la réunion",
                    "tanzanie",
                    "tunisie",
                    "zambie",
                    "zimbabwe"
                ],
                "amériques": [
                    "bahamas",
                    "belize",
                    "bolivie",
                    "brésil",
                    "canada",
                    "québec",
                    "équateur",
                    "états-unis",
                    "californie",
                    "parcs nationaux de l'ouest américain",
                    "alaska",
                    "hawaii",
                    "new york",
                    "pérou"
                ],
                "moyen-orient": [
                    "israël",
"palestine",
                    "jordanie",
                    "liban"
                ],
                "asie": [
                    "azerbaïdjan",
                    "bali",
                    "chine",
                    "japon",
                    "kazakhstan",
                    "malaisie",
                    "kuala lumpur",
                    "bornéo",
                    "sri lanka",
                    "tibet"
                ],
                "océanie": [
                    "australie",
                    "polynésie française"
                ]
            },
            "ski, neige et montagne": {
                "europe": {},
                "afrique et océan indien": {},
                "amériques": {},
                "moyen-orient": {},
                "asie": {},
                "océanie": {}
            }
        },
        "7": {
            "plage et soleil": {
                "europe": [
                    "açores",
                    "albanie",
                    "bulgarie",
                    "chypre",
                    "crète",
                    "croatie",
                    "espagne",
                    "baléares",
                    "canaries",
                    "grèce",
                    "italie",
                    "malte",
                    "monténégro",
                    "portugal",
                    "madère",
                    "roumanie",
                    "russie",
                    "turquie"
                ],
                "afrique et océan indien": [
                    "algérie",
                    "cap-vert",
                    "maroc",
                    "madagascar",
                    "île maurice",
                    "la réunion",
                    "tanzanie",
                    "tunisie"
                ],
                "amériques": [
                    "états-unis",
                    "californie",
                    
                    "hawaii"
                ],
                "moyen-orient": [
                    "égypte",
                    "israël",
                    "liban"
                ],
                "asie": [
                    "indonésie",
                    "bali",
                    "malaisie",
                    "sri lanka"
                ],
                "océanie": [
                    "australie",
                    "îles fidji",
                    "polynésie française"
                ]
            },
            "nature, randonnées et visites": {
                "europe": [
                    "açores",
                    "angleterre",
                    "pays de galles",
                    "albanie",
                    "allemagne",
                    "arménie",
                    "autriche",
                    "belgique",
                    "bulgarie",
                    "chypre",
                    "croatie",
                    "danemark",
                    "espagne",
                    "andalousie",
                    "baléares",
                    "canaries",
                    "estonie",
                    "finlande",
                    "hongrie",
                    "îles féroé",
                    "irlande",
                    "islande",
                    "italie",
                    "sicile",
                    "madère",
                    "lettonie",
                    "lituanie",
                    "malte",
                    "monténégro",
                    "norvège",
                    "pays-bas",
                    "pologne",
                    "portugal",
                    "république tchèque",
                    "roumanie",
                    "serbie",
                    "slovaquie",
                    "slovénie",
                    "suède",
                    "suisse",
                    "russie",
                    "moscou",
                    "saint-pétersbourg",
                    "turquie"
                ],
                "afrique et océan indien": [
                    "afrique du sud",
                    "botswana",
                    "cap-vert",
                    "maroc",
                    "mozambique",
                    "namibie",
                    "république du congo",
                    "la réunion",
                    "swaziland",
                    "tanzanie",
                    "tunisie",
                    "zambie",
                    "zimbabwe"
                ],
                "amériques": [
                    "bahamas",
                    "bolivie",
                    "brésil",
                    "canada",
                    "québec",
                    "vancouver",
                    "équateur",
                    "états-unis",
                    "californie",
                    "alaska",
                    "hawaii",
                    "pérou"
                ],
                "moyen-orient": [
                    "israël",
"palestine",
                    "jordanie",
                    "liban"
                ],
                "asie": [
                    "indonésie",
                    "bali",
                    "malaisie",
                    "kuala lumpur",
                    "bornéo",
                    "mongolie",
                    "tibet"
                ],
                "océanie": [
                    "australie",
                    "polynésie française"
                ]
            },
            "ski, neige et montagne": {
                "europe": {},
                "afrique et océan indien": {},
                "amériques": {},
                "moyen-orient": {},
                "asie": {},
                "océanie": {}
            }
        },
        "8": {
            "plage et soleil": {
                "europe": [
                    "açores",
                    "albanie",
                    "bulgarie",
                    "chypre",
                    "crète",
                    "croatie",
                    "espagne",
                    "baléares",
                    "canaries",
                    "grèce",
                    "italie",
                    "malte",
                    "monténégro",
                    "portugal",
                    "madère",
                    "roumanie",
                    "russie",
                    "turquie"
                ],
                "afrique et océan indien": [
                    "algérie",
                    "cap-vert",
                    "kenya",
                    "madagascar",
                    "maroc",
                    "île maurice",
                    "la réunion",
                    "tanzanie",
                    "tunisie"
                ],
                "amériques": [
                    "brésil",
                    "états-unis",
                    "californie",
                    
                    "hawaii",
                    "guyane"
                ],
                "moyen-orient": [
                    "égypte",
                    "israël",
                    "liban"
                ],
                "asie": [
                    "indonésie",
                    "bali",
                    "malaisie"
                ],
                "océanie": [
                    "australie",
                    "îles fidji",
                    "polynésie française"
                ]
            },
            "nature, randonnées et visites": {
                "europe": [
                    "açores",
                    "albanie",
                    "angleterre",
                    "pays de galles",
                    "allemagne",
                    "arménie",
                    "autriche",
                    "belgique",
                    "bulgarie",
                    "chypre",
                    "croatie",
                    "danemark",
                    "îles féroé",
                    "espagne",
                    "andalousie",
                    "baléares",
                    "canaries",
                    "estonie",
                    "finlande",
                    "géorgie",
                    "hongrie",
                    "irlande",
                    "islande",
                    "italie",
                    "sicile",
                    "madère",
                    "lettonie",
                    "lituanie",
                    "malte",
                    "monténégro",
                    "norvège",
                    "pays-bas",
                    "pologne",
                    "portugal",
                    "madère",
                    "république tchèque",
                    "roumanie",
                    "serbie",
                    "slovaquie",
                    "slovénie",
                    "suède",
                    "suisse",
                    "russie",
                    "moscou",
                    "saint-pétersbourg",
                    "turquie"
                ],
                "afrique et océan indien": [
                    "afrique du sud",
                    "botswana",
                    "cap-vert",
                    "kenya",
                    "maroc",
                    "mozambique",
                    "namibie",
                    "république du congo",
                    "la réunion",
                    "tanzanie",
                    "zambie",
                    "zimbabwe"
                ],
                "amériques": [
                    "bolivie",
                    "brésil",
                    "canada",
                    "québec",
                    "vancouver",
                    "équateur",
                    "états-unis",
                    "californie",
                    "alaska",
                    "hawaii",
                    "guyane",
                    "paraguay"
                ],
                "moyen-orient": [
                    "israël",
"palestine",
                    "jordanie",
                    "liban"
                ],
                "asie": [
                    "indonésie",
                    "bali",
                    "malaisie",
                    "kuala lumpur",
                    "bornéo",
                    "mongolie",
                    "tibet"
                ],
                "océanie": [
                    "australie",
                    "polynésie française"
                ]
            },
            "ski, neige et montagne": {
                "europe": {},
                "afrique et océan indien": {},
                "amériques": {},
                "moyen-orient": {},
                "asie": {},
                "océanie": {}
            }
        },
        "9": {
            "plage et soleil": {
                "europe": [
                    "açores",
                    "arménie",
                    "bulgarie",
                    "chypre",
                    "croatie",
                    "espagne",
                    "baléares",
                    "canaries",
                    "grèce",
                    "crète",
                    "îles grecques",
                    "italie",
                    "malte",
                    "monténégro",
                    "portugal",
                    "madère",
                    "turquie"
                ],
                "afrique et océan indien": [
                    "algérie",
                    "kenya",
                    "madagascar",
                    "maroc",
                    "île maurice",
                    "la réunion",
                    "sénégal",
                    "seychelles",
                    "tanzanie",
                    "tunisie"
                ],
                "amériques": [
                    "brésil",
                    "états-unis",
                    "californie",
                    "hawaii",
                    "guatemala",
                    "guyane",
                    "surinam"
                ],
                "moyen-orient": [
                    "égypte",
                    "israël",
                    "liban",
                    "oman"
                ],
                "asie": [
                    "indonésie",
                    "bali",
                    "malaisie",
                    "bornéo"
                ],
                "océanie": [
                    "australie",
                    "îles fidji",
                    "polynésie française"
                ]
            },
            "nature, randonnées et visites": {
                "europe": [
                    "açores",
                    "albanie",
                    "arménie",
                    "allemagne",
                    "autriche",
                    "belgique",
                    "bulgarie",
                    "chypre",
                    "croatie",
                    "danemark",
                    "espagne",
                    "andalousie",
                    "baléares",
                    "canaries",
                    "géorgie",
                    "grèce",
                    "îles grecques",
                    "italie",
                    "sicile",
                    "malte",
                    "monténégro",
                    "norvège",
                    "portugal",
                    "madère",
                    "turquie",
                    "istanbul"
                ],
                "afrique et océan indien": [
                    "afrique du sud",
                    "algérie",
                    "botswana",
                    "cap-vert",
                    "kenya",
                    "madagascar",
                    "maroc",
                    "mozambique",
                    "namibie",
                    "république du congo",
                    "la réunion",
                    "tanzanie",
                    "tunisie",
                    "zimbabwe"
                ],
                "amériques": [
                    "bolivie",
                    "brésil",
                    "canada",
                    "québec",
                    "vancouver",
                    "équateur",
                    "états-unis",
                    "californie",
                    "chicago",
                    "parcs nationaux de l'ouest américain",
                    "alaska",
                    "hawaii",
                    "guyane",
                    "paraguay"
                ],
                "moyen-orient": [
                    "iran",
                    "israël",
"palestine",
                    "jordanie",
                    "liban"
                ],
                "asie": [
                    "chine",
                    "pékin",
                    "pékin",
                    "corée du sud",
                    "indonésie",
                    "bali",
                    "japon",
                    "malaisie",
                    "kazakhstan",
                    "kirghizistan",
                    "madagascar",
                    "mongolie",
                    "ouzbékistan",
                    "tadjikistan",
                    "tibet",
                    "turkménistan"
                ],
                "océanie": [
                    "australie",
                    "polynésie française"
                ]
            },
            "ski, neige et montagne": {
                "europe": {},
                "afrique et océan indien": {},
                "amériques": {},
                "moyen-orient": {},
                "asie": {},
                "océanie": {}
            }
        },
        "10": {
            "plage et soleil": {
                "europe": [
                    "chypre",
                    "crète"
                ],
                "afrique et océan indien": [
                    "cap-vert",
                    "kenya",
                    "madagascar",
                    "maroc",
                    "île maurice",
                    "la réunion",
                    "seychelles",
                    "tanzanie"
                ],
                "amériques": [
                    "brésil",
                    "costa rica",
                    "états-unis",
                    "californie",
                    "guyane",
                    "surinam"
                ],
                "moyen-orient": [
                    "égypte",
                    "israël"
                ],
                "asie": [
                    "bali"
                ],
                "océanie": [
                    "australie",
                    "îles fidji",
                    "nouvelle-calédonie",
                    "polynésie française"
                ]
            },
            "nature, randonnées et visites": {
                "europe": [
                    "albanie",
                    "arménie",
                    "chypre",
                    "croatie",
                    "espagne",
                    "grèce",
                    "îles grecques",
                    "italie",
                    "toscane",
                    "malte",
                    "portugal",
                    "turquie"
                ],
                "afrique et océan indien": [
                    "afrique du sud",
                    "algérie",
                    "éthiopie",
                    "kenya",
                    "madagascar",
                    "maroc",
                    "mozambique",
                    "namibie",
                    "la réunion",
                    "sénégal",
                    "tanzanie",
                    "tunisie",
                    "swaziland"
                ],
                "amériques": [
                    "argentine",
                    "patagonie",
                    "bolivie",
                    "brésil",
                    "chili",
                    "équateur",
                    "états-unis",
                    "californie",
                    "louisiane",
                    "guyane",
                    "paraguay",
                    "uruguay",
                    "surinam"
                ],
                "moyen-orient": [
                    "iran",
                    "israël",
"palestine",
                    "jordanie",
                    "liban"
                ],
                "asie": [
                    "bali",
                    "chine",
                    "shanghai",
                    "hong kong",
                    "macao",
                    "corée du sud",
                    "japon",
                    "kazakhstan",
                    "kirghizistan",
                    "mongolie",
                    "ouzbékistan",
                    "tadjikistan",
                    "turkménistan",
                    "vietnam"
                ],
                "océanie": [
                    "australie",
                    "nouvelle-calédonie",
                    "polynésie française"
                ]
            },
            "ski, neige et montagne": {
                "europe": {},
                "afrique et océan indien": {},
                "amériques": {},
                "moyen-orient": {},
                "asie": {},
                "océanie": {}
            }
        },
        "11": {
            "plage et soleil": {
                "europe": {},
                "afrique et océan indien": [
                    "afrique du sud",
                    "bénin",
                    "cameroun",
                    "cap-vert",
                    "gambie",
                    "ghana",
                    "île maurice",
                    "kenya",
                    "madagascar",
                    "la réunion",
                    "sénégal",
                    "seychelles",
                    "togo"
                ],
                "amériques": [
                    "brésil",
                    
                    "mexique",
                    "salvador",
                    "surinam"
                ],
                "moyen-orient": [
                    "israël"
                ],
                "asie": [
                    "bali",
                    "inde"
                ],
                "océanie": [
                    "australie",
                    "nouvelle-calédonie"
                ]
            },
            "nature, randonnées et visites": {
                "europe": [
                    "andalousie",
                    "chypre",
                    "chypre",
                    "crète",
                    "italie"
                ],
                "afrique et océan indien": [
                    "afrique du sud",
                    "bénin",
                    "burkina faso",
                    "cameroun",
                    "éthiopie",
                    "ghana",
                    "kenya",
                    "namibie",
                    "sénégal",
                    "togo"
                ],
                "amériques": [
                    "argentine",
                    "buenos aires",
                    "patagonie",
                    "brésil",
                    "chili",
                    "costa rica",
                    "états-unis",
                    "californie",
                    
                    "louisiane",
                    "guatemala",
                    "guyane",
                    "honduras",
                    "uruguay"
                ],
                "moyen-orient": [
                    "égypte",
                    "émirats arabes unis",
                    
                    
                    "iran",
                    "israël",
"palestine"
                ],
                "asie": [
                    "bhoutan",
                    "chine",
                    "shanghai",
                    "hong kong",
                    "macao",
                    "inde",
                    "rajasthan",
                    "mumbai",
                    "laos",
                    "singapour",
                    "taiwan",
                    "vietnam"
                ],
                "océanie": [
                    "australie",
                    "nouvelle-calédonie"
                ]
            },
            "ski, neige et montagne": {
                "europe": {},
                "afrique et océan indien": {},
                "amériques": {},
                "moyen-orient": {},
                "asie": {},
                "océanie": {}
            }
        },
        "12": {
            "plage et soleil": {
                "europe": {},
                "afrique et océan indien": [
                    "afrique du sud",
                    "bénin",
                    "cameroun",
                    "cote d'ivoire",
                    "gabon",
                    "gambie",
                    "sénégal",
                    "togo"
                ],
                "amériques": [
                    
                    
                    "argentine",
                    "brésil",
                    "chili",
                    "colombie",
                    "cuba",
                    
                    "guyane",
                    "jamaïque",
                    "mexique",
                    "pérou",
                    "porto rico",
                    "république dominicaine",
                    "salvador",
                    "uruguay",
                    "venezuela"
                ],
                "moyen-orient": [
                    "oman"
                ],
                "asie": [
                    "cambodge",
                    "inde",
                    
                    
                    "thaïlande",
                    "vietnam"
                ],
                "océanie": [
                    "australie",
                    "nouvelle-calédonie",
                    "nouvelle-zélande"
                ]
            },
            "nature, randonnées et visites": {
                "europe": {},
                "afrique et océan indien": [
                    "afrique du sud",
                    "burkina faso",
                    "cameroun",
                    "cap-vert",
                    "éthiopie",
                    "gambie",
                    "kenya",
                    "lesotho",
                    "sénégal",
                    "tanzanie",
                    "togo"
                ],
                "amériques": [
                    
                    
                    "argentine",
                    "brésil",
                    "canada",
                    "chili",
                    "colombie",
                    "costa rica",
                    "cuba",
                    "guatemala",
                    
                    "honduras",
                    "jamaïque",
                    "mexique",
                    "nicaragua",
                    "pérou",
                    "république dominicaine",
                    "salvador"
                ],
                "moyen-orient": [
                    "égypte",
                    "émirats arabes unis",
                    
                    
                    "oman"
                ],
                "asie": [
                    "birmanie",
                    "cambodge",
                    "chine",
                    "hong kong",
                    "macao",
                    "inde",
                    "delhi",
                    "rajasthan",
                    "mumbai",
                    
                    
                    "laos",
                    "népal",
                    "philippines",
                    "singapour",
                    "taiwan",
                    "thaïlande",
                    "vietnam"
                ],
                "océanie": [
                    "australie"
                ]
            },
            "ski, neige et montagne": {
                "europe": [
                    "allemagne",
                    "alpes",
                    "autriche",
                    "finlande",
                    "norvège",
                    "suède",
                    "suisse"
                ],
                "afrique et océan indien": {},
                "amériques": [
                    "canada",
                    "québec",
                    "états-unis"
                ],
                "moyen-orient": {},
                "asie": {},
                "océanie": {}
            }
        }
    },
    "no": {
        "1": {
            "plage et soleil": {
                "europe": [
                    "açores",
                    "canaries",
                    "chypre",
                    "croatie",
                    "madère",
                    "malte",
                    "grèce",
                    "malte",
                    "portugal",
                    "russie",
                    "turquie"
                ],
                "afrique et océan indien": [
                    "algérie",
                    "madagascar",
                    "maroc",
                    "île maurice",
                    "la réunion",
                    "seychelles",
                    "tunisie"
                ],
                "amériques": [
                    "cuba",
                    "canada",
                    "états-unis"
                ],
                "moyen-orient": [
                    "israël",
"palestine"
                ],
                "asie": [
                    "indonésie",
                    "malaisie"
                ],
                "océanie": [
                    "australie",
                    "îles fidji",
                    "polynésie française"
                ]
            },
            "nature, randonnées et visites": {
                "europe": [
                    "açores",
                    "croatie",
                    "madère"
                ],
                "afrique et océan indien": [
                    "algérie",
                    "afrique du sud",
                    "bénin",
                    "côte d’ivoire",
                    "gabon",
                    "maroc",
                    "mozambique",
                    "la réunion",
                    "swaziland",
                    "tunisie",
                    "zambie",
                    "zimbabwe"
                ],
                "amériques": [
                    "brésil",
                    "canada",
                    "équateur",
                    "états-unis",
                    "new york",
                    "chicago",
                    "boston",
                    "guyane"
                ],
                "moyen-orient": [
                    "israël",
"palestine"
                ],
                "asie": [
                    "indonésie",
                    "malaisie",
                    "chine",
                    "mongolie",
                    "ouzbékistan",
                    "tibet"
                ],
                "océanie": [
                    "australie"
                ]
            },
            "ski, neige et montagne": {
                "europe": {},
                "afrique et océan indien": {},
                "amériques": {},
                "moyen-orient": {},
                "asie": {},
                "océanie": {}
            }
        },
        "2": {
            "plage et soleil": {
                "europe": [
                    "açores",
                    "canaries",
                    "chypre",
                    "croatie",
                    "madère",
                    "malte",
                    "grèce",
                    "malte",
                    "portugal",
                    "russie",
                    "turquie"
                ],
                "afrique et océan indien": [
                    "algérie",
                    "madagascar",
                    "maroc",
                    
                    "île maurice",
                    "la réunion",
                    "seychelles",
                    "tunisie"
                ],
                "amériques": [
                    "canada",
                    "états-unis",
                    
                    "hawaii",
                    "pérou"
                ],
                "moyen-orient": [
                    "émirats arabes unis",
                    "oman",
                    "égypte",
                    "israël",
"palestine"
                ],
                "asie": [
                    "bali",
                    "indonésie",
                    "malaisie"
                ],
                "océanie": [
                    "australie",
                    "îles fidji",
                    "nouvelle-calédonie",
                    "polynésie française"
                ]
            },
            "nature, randonnées et visites": {
                "europe": [
                    "îles grecques",
                    "baléares",
                    "sardaigne",
                    "sicile",
                    "norvège",
                    "suède",
                    "finlande",
                    "canaries",
                    "madère",
                    "turquie",
                    "russie"
                ],
                "afrique et océan indien": [
                    "madagascar",
                    "maroc",
                    "île maurice",
                    "la réunion",
                    
                    "mozambique",
                    "swaziland",
                    "tunisie",
                    "zambie",
                    "zimbabwe"
                ],
                "amériques": [
                    "brésil",
                    "équateur",
                    "canada",
                    "états-unis",
                    "new york",
                    "chicago",
                    "boston",
                    "équateur"
                ],
                "moyen-orient": [
                    "égypte",
                    "israël",
"palestine"
                ],
                "asie": [
                    "bali",
                    "chine",
                    "corée du sud",
                    "indonésie",
                    "japon",
                    "malaisie",
                    "mongolie",
                    "tibet"
                ],
                "océanie": [
                    "australie",
                    "nouvelle-calédonie",
                    "polynésie française"
                ]
            },
            "ski, neige et montagne": {
                "europe": {},
                "afrique et océan indien": {},
                "amériques": {},
                "moyen-orient": {},
                "asie": {},
                "océanie": {}
            }
        },
        "3": {
            "plage et soleil": {
                "europe": [
                    "açores",
                    "turquie",
                    "canaries"
                ],
                "afrique et océan indien": [
                    "madagascar",
                    "maroc",
                    "île maurice",
                    "la réunion",
                    "tunisie"
                ],
                "amériques": [
                    "canada",
                    "états-unis"
                    
                ],
                "moyen-orient": [
                    "émirats arabes unis",
                    "oman",
                    "égypte"
                ],
                "asie": {},
                "océanie": [
                    "australie",
                    "îles fidji",
                    "nouvelle-calédonie"
                ]
            },
            "nature, randonnées et visites": {
                "europe": [
                    "norvège",
                    "suède",
                    "finlande",
                    "russie"
                ],
                "afrique et océan indien": [
                    "la réunion",
                    "mozambique",
                    "tanzanie"
                ],
                "amériques": [
                    "canada",
                    "pérou"
                ],
                "moyen-orient": {},
                "asie": [
                    "mongolie"
                ],
                "océanie": [
                    "australie"
                ]
            },
            "ski, neige et montagne": {
                "europe": {},
                "afrique et océan indien": {},
                "amériques": {},
                "moyen-orient": {},
                "asie": {},
                "océanie": {}
            }
        },
        "4": {
            "plage et soleil": {
                "europe": [
                    "turquie",
                    "canaries"
                ],
                "afrique et océan indien": [
                    "maroc",
                    "kenya",
                    "tanzanie"
                ],
                "amériques": [
                    "canada",
                    "états-unis",
                    
                    "surinam"
                ],
                "moyen-orient": [
                    "émirats arabes unis"
                ],
                "asie": {},
                "océanie": [
                    "australie",
                    "îles fidji",
                    "nouvelle-calédonie",
                    "nouvelle-zélande"
                ]
            },
            "nature, randonnées et visites": {
                "europe": [
                    "russie"
                ],
                "afrique et océan indien": [
                    "burkina faso",
                    "kenya",
                    "tanzanie"
                ],
                "amériques": [
                    "bolivie",
                    "brésil",
                    "équateur",
                    "canada",
                    "pérou",
                    "surinam"
                ],
                "moyen-orient": {},
                "asie": [
                    "birmanie",
                    "cambodge",
                    "inde",
                    "philippines",
                    "singapour",
                    "thaïlande"
                ],
                "océanie": [
                    "australie"
                ]
            },
            "ski, neige et montagne": {
                "europe": {},
                "afrique et océan indien": {},
                "amériques": {},
                "moyen-orient": {},
                "asie": {},
                "océanie": {}
            }
        },
        "5": {
            "plage et soleil": {
                "europe": [
                    "turquie",
                    "canaries"
                ],
                "afrique et océan indien": [
                    "afrique du sud",
                    "bénin",
                    "kenya",
                    "tanzanie",
                    "zanzibar"
                ],
                "amériques": [
                    "argentine",
                    "canada",
                    "chili",
                    "états-unis",
                    
                    "guyane",
                    "surinam"
                ],
                "moyen-orient": [
                    "émirats arabes unis",
                    "oman"
                ],
                "asie": [
                    "chine",
                    "sri lanka"
                ],
                "océanie": [
                    "australie",
                    "nouvelle-zélande"
                ]
            },
            "nature, randonnées et visites": {
                "europe": {},
                "afrique et océan indien": [
                    "burkina faso",
                    "ghana",
                    "kenya",
                    "tanzanie",
                    "togo"
                ],
                "amériques": [
                    "argentine",
                    "chili",
                    "guyane",
                    "surinam"
                ],
                "moyen-orient": [
                    "oman"
                ],
                "asie": [
                    "birmanie",
                    "cambodge",
                    "chine",
                    "hong kong",
                    "inde",
                    "laos",
                    "macao",
                    "philippines",
                    "singapour",
                    "thaïlande",
                    "vietnam"
                ],
                "océanie": [
                    "australie",
                    "nouvelle-zélande"
                ]
            },
            "ski, neige et montagne": {
                "europe": {},
                "afrique et océan indien": {},
                "amériques": {},
                "moyen-orient": {},
                "asie": {},
                "océanie": {}
            }
        },
        "6": {
            "plage et soleil": {
                "europe": {},
                "afrique et océan indien": [
                    "afrique du sud",
                    "bénin",
                    "burkina faso",
                    "côte d'ivoire",
                    "kenya",
                    "togo"
                ],
                "amériques": [
                    "argentine",
                    "chili",
                    "brésil",
                    "guatemala",
                    "guyane",
                    "pérou",
                    "salvador",
                    "surinam",
                    "uruguay"
                ],
                "moyen-orient": [
                    "oman"
                ],
                "asie": [
                    "birmanie",
                    "inde",
                    "philippines",
                    "sri lanka",
                    "vietnam"
                ],
                "océanie": [
                    "australie",
                    "nouvelle-zélande",
                    "polynésie française"
                ]
            },
            "nature, randonnées et visites": {
                "europe": {},
                "afrique et océan indien": [
                    "bénin",
                    "burkina faso",
                    "côte d'ivoire",
                    "ghana",
                    "kenya",
                    "tanzanie",
                    "togo"
                ],
                "amériques": [
                    "argentine",
                    "chili",
                    "costa rica",
                    "guatemala",
                    "guyane",
                    "pérou",
                    "salvador",
                    "surinam",
                    "uruguay"
                ],
                "moyen-orient": [
                    "émirats arabes unis",
                    
                    "oman"
                ],
                "asie": [
                    "birmanie",
                    "bhoutan",
                    "cambodge",
                    "chine",
                    "tibet",
                    "hong kong",
                    "inde",
                    "laos",
                    "macao",
                    "népal",
                    "philippines",
                    "taïwan",
                    "sri lanka",
                    "taiwan",
                    "thaïlande",
                    "vietnam"
                ],
                "océanie": [
                    "australie",
                    "nouvelle-zélande",
                    "polynésie française"
                ]
            },
            "ski, neige et montagne": {
                "europe": {},
                "afrique et océan indien": {},
                "amériques": {},
                "moyen-orient": {},
                "asie": {},
                "océanie": {}
            }
        },
        "7": {
            "plage et soleil": {
                "europe": {},
                "afrique et océan indien": [
                    "afrique du sud",
                    "bénin",
                    "burkina faso",
                    "cameroun",
                    "côte d'ivoire",
                    "gambie",
                    "togo"
                ],
                "amériques": [
                    "argentine",
                    "chili",
                    "costa rica",
                    "guyane",
                    "pérou",
                    "salvador",
                    "trinité-et-tobago",
                    "uruguay",
                    "venezuela"
                ],
                "moyen-orient": [
                    "oman"
                ],
                "asie": [
                    "cambodge",
                    "inde",
                    "philippines",
                    "sri lanka",
                    "vietnam"
                ],
                "océanie": [
                    "australie",
                    "nouvelle-zélande",
                    "polynésie française"
                ]
            },
            "nature, randonnées et visites": {
                "europe": {},
                "afrique et océan indien": [
                    "bénin",
                    "cameroun",
                    "éthiopie",
                    "gambie",
                    "kenya"
                ],
                "amériques": [
                    "argentine",
                    "belize",
                    "chili",
                    "costa rica",
                    "états-unis",
                    
                    "louisiane",
                    "guatemala",
                    "guyane"
                ],
                "moyen-orient": [
                    "égypte",
                    "émirats arabes unis",
                    
                    
                    "israël",
                    "jordanie",
                    "oman"
                ],
                "asie": [
                    "birmanie",
                    "bhoutan",
                    "cambodge",
                    "chine",
                    "shanghai",
                    "hong kong",
                    "macao",
                    "inde",
                    "laos",
                    "philippines",
                    "sri lanka",
                    "thaïlande",
                    "vietnam"
                ],
                "océanie": [
                    "australie",
                    "nouvelle-zélande",
                    "polynésie française"
                ]
            },
            "ski, neige et montagne": {
                "europe": {},
                "afrique et océan indien": {},
                "amériques": {},
                "moyen-orient": {},
                "asie": {},
                "océanie": {}
            }
        },
        "8": {
            "plage et soleil": {
                "europe": {},
                "afrique et océan indien": [
                    "afrique du sud",
                    "bénin",
                    "burkina faso",
                    "cameroun",
                    "côte d'ivoire",
                    "gambie",
                    "sénégal",
                    "togo"
                ],
                "amériques": [
                    "argentine",
                    "chili",
                    "colombie",
                    "costa rica",
                    "pérou",
                    "république dominicaine",
                    "salvador",
                    "trinité-et-tobago",
                    "uruguay",
                    "venezuela"
                ],
                "moyen-orient": [
                    "oman"
                ],
                "asie": [
                    "inde",
                    "philippines",
                    "sri lanka",
                    "vietnam"
                ],
                "océanie": [
                    "australie",
                    "nouvelle-zélande"
                ]
            },
            "nature, randonnées et visites": {
                "europe": {},
                "afrique et océan indien": [
                    "bénin",
                    "cameroun",
                    "éthiopie",
                    "gambie",
                    "kenya",
                    "gambie",
                    "sénégal"
                ],
                "amériques": [
                    "belize",
                    "costa rica",
                    "états-unis",
                    
                    "louisiane",
                    "république dominicaine",
                    "guatemala",
                    "pérou"
                ],
                "moyen-orient": [
                    "égypte",
                    "émirats arabes unis",
                    
                    
                    "jordanie",
                    "oman"
                ],
                "asie": [
                    "bhoutan",
                    "birmanie",
                    "cambodge",
                    "chine",
                    "shanghai",
                    "hong kong",
                    "macao",
                    "inde",
                    "japon",
                    "népal",
                    "laos",
                    "philippines",
                    "sri lanka",
                    "thaïlande",
                    "vietnam"
                ],
                "océanie": [
                    "australie",
                    "nouvelle-zélande"
                ]
            },
            "ski, neige et montagne": {
                "europe": {},
                "afrique et océan indien": {},
                "amériques": {},
                "moyen-orient": {},
                "asie": {},
                "océanie": {}
            }
        },
        "9": {
            "plage et soleil": {
                "europe": {},
                "afrique et océan indien": [
                    "algérie",
                    "gabon",
                    "gambie"
                ],
                "amériques": [
                    
                    
                    "belize",
                    "costa rica",
                    "cuba",
                    "colombie",
                    "états-unis",
                    
                    "jamaïque",
                    "porto rico",
                    "république dominicaine",
                    "salvador",
                    "trinité-et-tobago",
                    "venezuela"
                ],
                "moyen-orient": [
                    "oman"
                ],
                "asie": [
                    "cambodge",
                    "malaisie",
                    "philippines",
                    "sri lanka",
                    "thaïlande"
                ],
                "océanie": [
                    "australie",
                    "nouvelle-zélande"
                ]
            },
            "nature, randonnées et visites": {
                "europe": {},
                "afrique et océan indien": [
                    "bénin",
                    "cameroun",
                    "gabon",
                    "gambie",
                    "kenya",
                    "sénégal",
                    "swaziland",
                    "tanzanie"
                ],
                "amériques": [
                    
                    
                    "belize",
                    "colombie",
                    "costa rica",
                    "cuba",
                    "états-unis",
                    
                    "louisiane",
                    "république dominicaine",
                    "guatemala",
                    "honduras",
                    "pérou",
                    "porto rico",
                    "salvador",
                    "surinam",
                    "trinité-et-tobago"
                ],
                "moyen-orient": [
                    "égypte",
                    "émirats arabes unis",
                    
                    
                    "jordanie",
                    "oman"
                ],
                "asie": [
                    "birmanie",
                    "cambodge",
                    "chine",
                    "hong kong",
                    "inde",
                    "laos",
                    "népal",
                    "philippines",
                    "thaïlande",
                    "vietnam"
                ],
                "océanie": [
                    "australie"
                ]
            },
            "ski, neige et montagne": {
                "europe": {},
                "afrique et océan indien": {},
                "amériques": {},
                "moyen-orient": {},
                "asie": {},
                "océanie": {}
            }
        },
        "10": {
            "plage et soleil": {
                "europe": {},
                "afrique et océan indien": [
                    "gabon"
                ],
                "amériques": [
                    
                    
                    "belize",
                    "colombie",
                    "costa rica",
                    "cuba",
                    "états-unis",
                    
                    "jamaïque",
                    "panama",
                    "porto rico",
                    "république dominicaine"
                ],
                "moyen-orient": {},
                "asie": [
                    "cambodge",
                    "inde",
                    "malaisie",
                    "philippines",
                    "sri lanka",
                    "thaïlande"
                ],
                "océanie": [
                    "australie",
                    "nouvelle-zélande"
                ]
            },
            "nature, randonnées et visites": {
                "europe": {},
                "afrique et océan indien": [
                    "gabon",
                    "togo"
                ],
                "amériques": [
                    
                    
                    "belize",
                    "colombie",
                    "costa rica",
                    "cuba",
                    "états-unis",
                    
                    "louisiane",
                    "république dominicaine",
                    "jamaïque",
                    "panama",
                    "porto rico",
                    "trinité-et-tobago"
                ],
                "moyen-orient": [
                    "égypte",
                    "jordanie",
                    "oman"
                ],
                "asie": [
                    "birmanie",
                    "cambodge",
                    "inde",
                    "malaisie",
                    "népal",
                    "philippines",
                    "sri lanka",
                    "thaïlande",
                    "vietnam"
                ],
                "océanie": [
                    "australie"
                ]
            },
            "ski, neige et montagne": {
                "europe": {},
                "afrique et océan indien": {},
                "amériques": {},
                "moyen-orient": {},
                "asie": {},
                "océanie": {}
            }
        },
        "11": {
            "plage et soleil": {
                "europe": [
                    "croatie",
                    "espagne",
                    "canaries",
                    "italie",
                    "malte",
                    "portugal",
                    "madère",
                    "turquie"
                ],
                "afrique et océan indien": [
                    "algérie",
                    "maroc"
                ],
                "amériques": [
                    "états-unis",
                    "panama"
                ],
                "moyen-orient": [
                    "oman"
                ],
                "asie": [
                    "inde",
                    "malaisie",
                    "sri lanka"
                ],
                "océanie": {}
            },
            "nature, randonnées et visites": {
                "europe": [
                    "finlande",
                    "islande",
                    "slovénie"
                ],
                "afrique et océan indien": {},
                "amériques": [
                    "belize",
                    "brésil",
                    "canada",
                    "québec",
                    "vancouver",
                    "mexique",
                    "panama"
                ],
                "moyen-orient": {},
                "asie": [
                    "chine",
                    "pékin",
                    "tibet",
                    "inde",
                    "malaisie",
                    "mongolie",
                    "népal",
                    "sri lanka"
                ],
                "océanie": [
                    "australie"
                ]
            },
            "ski, neige et montagne": {
                "europe": {},
                "afrique et océan indien": {},
                "amériques": {},
                "moyen-orient": {},
                "asie": {},
                "océanie": {}
            }
        },
        "12": {
            "plage et soleil": {
                "europe": [
                    "açores",
                    "bulgarie",
                    "chypre",
                    "croatie",
                    "espagne",
                    "canaries",
                    "grèce",
                    "italie",
                    "malte",
                    "portugal",
                    "madère",
                    "turquie"
                ],
                "afrique et océan indien": [
                    "algérie",
                    "madagascar",
                    "maroc",
                    "seychelles",
                    "tunisie"
                ],
                "amériques": {},
                "moyen-orient": [
                    "égypte",
                    "israël"
                ],
                "asie": [
                    "indonésie",
                    "bali",
                    "malaisie",
                    "sri lanka"
                ],
                "océanie": [
                    "australie",
                    "polynésie française"
                ]
            },
            "nature, randonnées et visites": {
                "europe": [
                    "allemagne",
                    "angleterre",
                    "arménie",
                    "autriche",
                    "belgique",
                    "finlande",
                    "hongrie",
                    "irlande",
                    "islande",
                    "malte",
                    "norvège",
                    "pays-bas",
                    "république tchèque",
                    "slovaquie",
                    "slovénie",
                    "suisse",
                    "turquie",
                    "istanbul"
                ],
                "afrique et océan indien": [
                    "algérie",
                    "bénin",
                    "maroc",
                    "mozambique",
                    "swaziland",
                    "tunisie",
                    "zimbabwe"
                ],
                "amériques": [
                    "belize",
                    "bolivie",
                    "brésil",
                    "états-unis",
                    "new york",
                    "chicago",
                    "boston",
                    "guyane",
                    "paraguay",
                    "uruguay"
                ],
                "moyen-orient": [
                    "israël",
                    "liban"
                ],
                "asie": [
                    "bhoutan",
                    "chine",
                    "pékin",
                    "tibet",
                    "corée du sud",
                    "indonésie",
                    "kazakhstan",
                    "kirghizistan",
                    "malaisie",
                    "mongolie",
                    "sri lanka",
                    "turkménistan"
                ],
                "océanie": [
                    "australie",
                    "nouvelle-zélande"
                ]
            },
            "ski, neige et montagne": {
                "europe": {},
                "afrique et océan indien": {},
                "amériques": {},
                "moyen-orient": {},
                "asie": {},
                "océanie": {}
            }
        }
    }
}